{
  "docs": {    
    "Introduction": ["introduction"],
    "Admin User Guide": ["create_record", "create_mapping"],
    "Technical documentation" : ["dependencies_installation","project_setup","project_overview","api_documentation","react_documentation","license_details"],    
    "Contributing Guidelines": ["contributing_guidelines"],
    "Contact Details": ["contact_details"]
  }
}
